{
  "project_info": {
    "project_number": "705910522297",
    "firebase_url": "https://denim-dating.firebaseio.com",
    "project_id": "denim-dating",
    "storage_bucket": "denim-dating.appspot.com"
  },
  "client": [
    {
      "client_info": {
        "mobilesdk_app_id": "1:705910522297:android:dee8bbab8b9a41cabc7668",
        "android_client_info": {
          "package_name": "ru.denim.app.android"
        }
      },
      "oauth_client": [
        {
          "client_id": "705910522297-jo9opjv0vt921hdj1m080n4dvjejogia.apps.googleusercontent.com",
          "client_type": 1,
          "android_info": {
            "package_name": "ru.denim.app.android",
            "certificate_hash": "ff2b6cfb9c8839bc6804b33942cc67e73564942f"
          }
        },
        {
          "client_id": "705910522297-l885hnk3ktstv429i3sggt7ptkmv6v75.apps.googleusercontent.com",
          "client_type": 3
        }
      ],
      "api_key": [
        {
          "current_key": "AIzaSyB3-TqIl9TluoT4IfXjK7WKviEwwJQbcrc"
        }
      ],
      "services": {
        "appinvite_service": {
          "other_platform_oauth_client": [
            {
              "client_id": "705910522297-l885hnk3ktstv429i3sggt7ptkmv6v75.apps.googleusercontent.com",
              "client_type": 3
            },
            {
              "client_id": "705910522297-g1ld675afe0l08pprb9daeuc7g5jatm8.apps.googleusercontent.com",
              "client_type": 2,
              "ios_info": {
                "bundle_id": "one.loft.loft",
                "app_store_id": "1497488995"
              }
            }
          ]
        }
      }
    },
    {
      "client_info": {
        "mobilesdk_app_id": "1:705910522297:android:fa04127e565f3cebbc7668",
        "android_client_info": {
          "package_name": "ru.loft.android"
        }
      },
      "oauth_client": [
        {
          "client_id": "705910522297-l885hnk3ktstv429i3sggt7ptkmv6v75.apps.googleusercontent.com",
          "client_type": 3
        }
      ],
      "api_key": [
        {
          "current_key": "AIzaSyB3-TqIl9TluoT4IfXjK7WKviEwwJQbcrc"
        }
      ],
      "services": {
        "appinvite_service": {
          "other_platform_oauth_client": [
            {
              "client_id": "705910522297-l885hnk3ktstv429i3sggt7ptkmv6v75.apps.googleusercontent.com",
              "client_type": 3
            },
            {
              "client_id": "705910522297-g1ld675afe0l08pprb9daeuc7g5jatm8.apps.googleusercontent.com",
              "client_type": 2,
              "ios_info": {
                "bundle_id": "one.loft.loft",
                "app_store_id": "1497488995"
              }
            }
          ]
        }
      }
    }
  ],
  "configuration_version": "1"
}